%YAML 1.1
%TAG !u! tag:unity3d.com,2011:
--- !u!114 &11400000
MonoBehaviour:
  m_ObjectHideFlags: 0
  m_CorrespondingSourceObject: {fileID: 0}
  m_PrefabInstance: {fileID: 0}
  m_PrefabAsset: {fileID: 0}
  m_GameObject: {fileID: 0}
  m_Enabled: 1
  m_EditorHideFlags: 0
  m_Script: {fileID: 11500000, guid: 23afdc7b7f10ea54aa9549c117a62ad5, type: 3}
  m_Name: EnemyRangedStats
  m_EditorClassIdentifier: 
  maxHealth: 100
  patrolSpeed: 1
  chaseSpeed: 3
  attackDamage: 10
  attackRange: 20
  attackSpeed: 1
  healingTick: 0
  reach: 30
  fieldOfView: 90
