%YAML 1.1
%TAG !u! tag:unity3d.com,2011:
--- !u!213 &21300000
Sprite:
  m_ObjectHideFlags: 0
  m_CorrespondingSourceObject: {fileID: 0}
  m_PrefabInstance: {fileID: 0}
  m_PrefabAsset: {fileID: 0}
  m_Name: Atlas (2)_21
  m_Rect:
    serializedVersion: 2
    x: 649
    y: 1857
    width: 34
    height: 46
  m_Offset: {x: 0, y: 0}
  m_Border: {x: 0, y: 0, z: 0, w: 0}
  m_PixelsToUnits: 50
  m_Pivot: {x: 0.5, y: 0.5}
  m_Extrude: 1
  m_IsPolygon: 0
  m_AtlasName: 
  m_PackingTag: 
  m_RenderDataKey:
    798f3348854d93a4997875afebb37446: -3086309052756823828
  m_AtlasTags: []
  m_SpriteAtlas: {fileID: 0}
  m_RD:
    serializedVersion: 3
    texture: {fileID: 2800000, guid: 798f3348854d93a4997875afebb37446, type: 3}
    alphaTexture: {fileID: 0}
    secondaryTextures: []
    m_SubMeshes:
    - serializedVersion: 2
      firstByte: 0
      indexCount: 12
      topology: 0
      baseVertex: 0
      firstVertex: 0
      vertexCount: 6
      localAABB:
        m_Center: {x: 0, y: 0, z: 0}
        m_Extent: {x: 0, y: 0, z: 0}
    m_IndexBuffer: 050004000300000003000400010003000000020001000000
    m_VertexData:
      serializedVersion: 3
      m_VertexCount: 6
      m_Channels:
      - stream: 0
        offset: 0
        format: 0
        dimension: 3
      - stream: 0
        offset: 0
        format: 0
        dimension: 0
      - stream: 0
        offset: 0
        format: 0
        dimension: 0
      - stream: 0
        offset: 0
        format: 0
        dimension: 0
      - stream: 1
        offset: 0
        format: 0
        dimension: 2
      - stream: 0
        offset: 0
        format: 0
        dimension: 0
      - stream: 0
        offset: 0
        format: 0
        dimension: 0
      - stream: 0
        offset: 0
        format: 0
        dimension: 0
      - stream: 0
        offset: 0
        format: 0
        dimension: 0
      - stream: 0
        offset: 0
        format: 0
        dimension: 0
      - stream: 0
        offset: 0
        format: 0
        dimension: 0
      - stream: 0
        offset: 0
        format: 0
        dimension: 0
      - stream: 0
        offset: 0
        format: 0
        dimension: 0
      - stream: 0
        offset: 0
        format: 0
        dimension: 0
      m_DataSize: 128
      _typelessdata: ec51383e1f85eb3e000000007b14ae3e1f85ebbe000000007b14ae3e1f85eb3e000000000ad7233e1f85ebbe000000007b14aebecdcccc3d000000007b14aebe8fc2f5bd00000000000000000000000000c0a83e00e06d3f00c0aa3e0020683f00c0aa3e00e06d3f0080a83e0020683f0040a23e00a06b3f0040a23e00406a3f
    m_Bindpose: []
    textureRect:
      serializedVersion: 2
      x: 649
      y: 1857
      width: 34
      height: 46
    textureRectOffset: {x: 0, y: 0}
    atlasRectOffset: {x: -1, y: -1}
    settingsRaw: 64
    uvTransform: {x: 50, y: 666, z: 50, w: 1880}
    downscaleMultiplier: 1
  m_AtlasRD:
    serializedVersion: 3
    texture: {fileID: 2800000, guid: 798f3348854d93a4997875afebb37446, type: 3}
    alphaTexture: {fileID: 0}
    secondaryTextures: []
    m_SubMeshes:
    - serializedVersion: 2
      firstByte: 0
      indexCount: 12
      topology: 0
      baseVertex: 0
      firstVertex: 0
      vertexCount: 6
      localAABB:
        m_Center: {x: 0, y: 0, z: 0}
        m_Extent: {x: 0, y: 0, z: 0}
    m_IndexBuffer: 050004000300000003000400010003000000020001000000
    m_VertexData:
      serializedVersion: 3
      m_VertexCount: 6
      m_Channels:
      - stream: 0
        offset: 0
        format: 0
        dimension: 3
      - stream: 0
        offset: 0
        format: 0
        dimension: 0
      - stream: 0
        offset: 0
        format: 0
        dimension: 0
      - stream: 0
        offset: 0
        format: 0
        dimension: 0
      - stream: 1
        offset: 0
        format: 0
        dimension: 2
      - stream: 0
        offset: 0
        format: 0
        dimension: 0
      - stream: 0
        offset: 0
        format: 0
        dimension: 0
      - stream: 0
        offset: 0
        format: 0
        dimension: 0
      - stream: 0
        offset: 0
        format: 0
        dimension: 0
      - stream: 0
        offset: 0
        format: 0
        dimension: 0
      - stream: 0
        offset: 0
        format: 0
        dimension: 0
      - stream: 0
        offset: 0
        format: 0
        dimension: 0
      - stream: 0
        offset: 0
        format: 0
        dimension: 0
      - stream: 0
        offset: 0
        format: 0
        dimension: 0
      m_DataSize: 128
      _typelessdata: ec51383e1f85eb3e000000007b14ae3e1f85ebbe000000007b14ae3e1f85eb3e000000000ad7233e1f85ebbe000000007b14aebecdcccc3d000000007b14aebe8fc2f5bd00000000000000000000000000c0a83e00e06d3f00c0aa3e0020683f00c0aa3e00e06d3f0080a83e0020683f0040a23e00a06b3f0040a23e00406a3f
    m_Bindpose: []
    textureRect:
      serializedVersion: 2
      x: 649
      y: 1857
      width: 34
      height: 46
    textureRectOffset: {x: 0, y: 0}
    atlasRectOffset: {x: -1, y: -1}
    settingsRaw: 64
    uvTransform: {x: 50, y: 666, z: 50, w: 1880}
    downscaleMultiplier: 1
  m_PhysicsShape:
  - - {x: 0.17999999, y: 0.45999998}
    - {x: -0.34, y: 0.06}
    - {x: -0.34, y: -0.12}
    - {x: 0.17999999, y: -0.45999998}
    - {x: 0.34, y: -0.45999998}
    - {x: 0.34, y: 0.45999998}
  m_Bones: []
  m_SpriteID: ce07b5bb44a3b25d0800000000000000
