%YAML 1.1
%TAG !u! tag:unity3d.com,2011:
--- !u!114 &11400000
MonoBehaviour:
  m_ObjectHideFlags: 0
  m_CorrespondingSourceObject: {fileID: 0}
  m_PrefabInstance: {fileID: 0}
  m_PrefabAsset: {fileID: 0}
  m_GameObject: {fileID: 0}
  m_Enabled: 1
  m_EditorHideFlags: 0
  m_Script: {fileID: 11500000, guid: 11928b57d6f4eb842b225299bac6ab2d, type: 3}
  m_Name: Bow
  m_EditorClassIdentifier: 
  isRanged: 1
  damage: 10
  range: 100
  impactForce: 30
  attackDelay: 2
