%YAML 1.1
%TAG !u! tag:unity3d.com,2011:
--- !u!213 &21300000
Sprite:
  m_ObjectHideFlags: 0
  m_CorrespondingSourceObject: {fileID: 0}
  m_PrefabInstance: {fileID: 0}
  m_PrefabAsset: {fileID: 0}
  m_Name: ArrowHUD
  m_Rect:
    serializedVersion: 2
    x: 254
    y: 1973
    width: 30
    height: 28
  m_Offset: {x: 0, y: 0}
  m_Border: {x: 0, y: 0, z: 0, w: 0}
  m_PixelsToUnits: 50
  m_Pivot: {x: 0.5, y: 0.5}
  m_Extrude: 1
  m_IsPolygon: 0
  m_AtlasName: 
  m_PackingTag: 
  m_RenderDataKey:
    81e45c1b88b828447b1fc63e7a15b251: -4883224759994504824
  m_AtlasTags: []
  m_SpriteAtlas: {fileID: 0}
  m_RD:
    serializedVersion: 3
    texture: {fileID: 2800000, guid: 81e45c1b88b828447b1fc63e7a15b251, type: 3}
    alphaTexture: {fileID: 0}
    secondaryTextures: []
    m_SubMeshes:
    - serializedVersion: 2
      firstByte: 0
      indexCount: 6
      topology: 0
      baseVertex: 0
      firstVertex: 0
      vertexCount: 4
      localAABB:
        m_Center: {x: 0, y: 0, z: 0}
        m_Extent: {x: 0, y: 0, z: 0}
    m_IndexBuffer: 000001000200020001000300
    m_VertexData:
      serializedVersion: 3
      m_VertexCount: 4
      m_Channels:
      - stream: 0
        offset: 0
        format: 0
        dimension: 3
      - stream: 0
        offset: 0
        format: 0
        dimension: 0
      - stream: 0
        offset: 0
        format: 0
        dimension: 0
      - stream: 0
        offset: 0
        format: 0
        dimension: 0
      - stream: 1
        offset: 0
        format: 0
        dimension: 2
      - stream: 0
        offset: 0
        format: 0
        dimension: 0
      - stream: 0
        offset: 0
        format: 0
        dimension: 0
      - stream: 0
        offset: 0
        format: 0
        dimension: 0
      - stream: 0
        offset: 0
        format: 0
        dimension: 0
      - stream: 0
        offset: 0
        format: 0
        dimension: 0
      - stream: 0
        offset: 0
        format: 0
        dimension: 0
      - stream: 0
        offset: 0
        format: 0
        dimension: 0
      - stream: 0
        offset: 0
        format: 0
        dimension: 0
      - stream: 0
        offset: 0
        format: 0
        dimension: 0
      m_DataSize: 80
      _typelessdata: 9a9999be295c8f3e000000009a99993e295c8f3e000000009a9999be295c8fbe000000009a99993e295c8fbe000000000000fe3d00207a3f00000e3e00207a3f0000fe3d00a0763f00000e3e00a0763f
    m_Bindpose: []
    textureRect:
      serializedVersion: 2
      x: 254
      y: 1973
      width: 30
      height: 28
    textureRectOffset: {x: 0, y: 0}
    atlasRectOffset: {x: -1, y: -1}
    settingsRaw: 64
    uvTransform: {x: 50, y: 269, z: 50, w: 1987}
    downscaleMultiplier: 1
  m_AtlasRD:
    serializedVersion: 3
    texture: {fileID: 2800000, guid: 81e45c1b88b828447b1fc63e7a15b251, type: 3}
    alphaTexture: {fileID: 0}
    secondaryTextures: []
    m_SubMeshes:
    - serializedVersion: 2
      firstByte: 0
      indexCount: 6
      topology: 0
      baseVertex: 0
      firstVertex: 0
      vertexCount: 4
      localAABB:
        m_Center: {x: 0, y: 0, z: 0}
        m_Extent: {x: 0, y: 0, z: 0}
    m_IndexBuffer: 000001000200020001000300
    m_VertexData:
      serializedVersion: 3
      m_VertexCount: 4
      m_Channels:
      - stream: 0
        offset: 0
        format: 0
        dimension: 3
      - stream: 0
        offset: 0
        format: 0
        dimension: 0
      - stream: 0
        offset: 0
        format: 0
        dimension: 0
      - stream: 0
        offset: 0
        format: 0
        dimension: 0
      - stream: 1
        offset: 0
        format: 0
        dimension: 2
      - stream: 0
        offset: 0
        format: 0
        dimension: 0
      - stream: 0
        offset: 0
        format: 0
        dimension: 0
      - stream: 0
        offset: 0
        format: 0
        dimension: 0
      - stream: 0
        offset: 0
        format: 0
        dimension: 0
      - stream: 0
        offset: 0
        format: 0
        dimension: 0
      - stream: 0
        offset: 0
        format: 0
        dimension: 0
      - stream: 0
        offset: 0
        format: 0
        dimension: 0
      - stream: 0
        offset: 0
        format: 0
        dimension: 0
      - stream: 0
        offset: 0
        format: 0
        dimension: 0
      m_DataSize: 80
      _typelessdata: 9a9999be295c8f3e000000009a99993e295c8f3e000000009a9999be295c8fbe000000009a99993e295c8fbe000000000000fe3d00207a3f00000e3e00207a3f0000fe3d00a0763f00000e3e00a0763f
    m_Bindpose: []
    textureRect:
      serializedVersion: 2
      x: 254
      y: 1973
      width: 30
      height: 28
    textureRectOffset: {x: 0, y: 0}
    atlasRectOffset: {x: -1, y: -1}
    settingsRaw: 64
    uvTransform: {x: 50, y: 269, z: 50, w: 1987}
    downscaleMultiplier: 1
  m_PhysicsShape:
  - - {x: 0.14, y: 0.28}
    - {x: -0.28, y: -0.04}
    - {x: -0.29999998, y: -0.099999994}
    - {x: -0.29999998, y: -0.28}
    - {x: -0.06, y: -0.28}
    - {x: 0.29999998, y: 0}
    - {x: 0.29999998, y: 0.28}
  m_Bones: []
  m_SpriteID: 889a22604fc4b3cb0800000000000000
