%YAML 1.1
%TAG !u! tag:unity3d.com,2011:
--- !u!114 &11400000
MonoBehaviour:
  m_ObjectHideFlags: 0
  m_CorrespondingSourceObject: {fileID: 0}
  m_PrefabInstance: {fileID: 0}
  m_PrefabAsset: {fileID: 0}
  m_GameObject: {fileID: 0}
  m_Enabled: 1
  m_EditorHideFlags: 0
  m_Script: {fileID: 11500000, guid: d7fd9488000d3734a9e00ee676215985, type: 3}
  m_Name: Sky and Fog Settings Profile
  m_EditorClassIdentifier: 
  components:
  - {fileID: 8102798907325402973}
--- !u!114 &8102798907325402973
MonoBehaviour:
  m_ObjectHideFlags: 3
  m_CorrespondingSourceObject: {fileID: 0}
  m_PrefabInstance: {fileID: 0}
  m_PrefabAsset: {fileID: 0}
  m_GameObject: {fileID: 0}
  m_Enabled: 1
  m_EditorHideFlags: 0
  m_Script: {fileID: 11500000, guid: a7649d9368d3a5c4ab8ad01a63e04962, type: 3}
  m_Name: ChannelMixer
  m_EditorClassIdentifier: 
  active: 1
  m_AdvancedMode: 0
  redOutRedIn:
    m_OverrideState: 1
    m_Value: 61.8
    min: -200
    max: 200
  redOutGreenIn:
    m_OverrideState: 1
    m_Value: 32
    min: -200
    max: 200
  redOutBlueIn:
    m_OverrideState: 1
    m_Value: 6.2
    min: -200
    max: 200
  greenOutRedIn:
    m_OverrideState: 1
    m_Value: 16.3
    min: -200
    max: 200
  greenOutGreenIn:
    m_OverrideState: 1
    m_Value: 77.5
    min: -200
    max: 200
  greenOutBlueIn:
    m_OverrideState: 1
    m_Value: 6.2
    min: -200
    max: 200
  blueOutRedIn:
    m_OverrideState: 1
    m_Value: 16.3
    min: -200
    max: 200
  blueOutGreenIn:
    m_OverrideState: 1
    m_Value: 32
    min: -200
    max: 200
  blueOutBlueIn:
    m_OverrideState: 1
    m_Value: 51.6
    min: -200
    max: 200
  m_SelectedChannel: 0
